<?xml version="1.0" encoding="utf-8"?>
<!-- Generator: Adobe Illustrator 23.0.1, SVG Export Plug-In . SVG Version: 6.00 Build 0)  -->
<svg version="1.1" id="Capa_1" xmlns="http://www.w3.org/2000/svg" xmlns:xlink="http://www.w3.org/1999/xlink" x="0px" y="0px"
	 viewBox="0 0 234 234" style="enable-background:new 0 0 234 234;" xml:space="preserve">
<style type="text/css">
	.st0{fill:#A1ABB3;}
</style>
<g>
	<path class="st0" d="M7.5,42.6h39.2c3.3,12.6,14.9,22,28.5,22s25.2-9.4,28.5-22h122.7c4.1,0,7.5-3.4,7.5-7.5s-3.4-7.5-7.5-7.5
		H103.8c-3.3-12.6-14.9-22-28.5-22s-25.2,9.4-28.5,22H7.5c-4.1,0-7.5,3.4-7.5,7.5S3.4,42.6,7.5,42.6z M75.3,20.6
		c8,0,14.5,6.5,14.5,14.5s-6.5,14.5-14.5,14.5s-14.5-6.5-14.5-14.5S67.3,20.6,75.3,20.6z"/>
	<path class="st0" d="M226.5,109.5h-50c-3.3-12.6-14.9-22-28.5-22s-25.2,9.4-28.5,22H7.5c-4.1,0-7.5,3.4-7.5,7.5s3.4,7.5,7.5,7.5
		h111.9c3.3,12.6,14.9,22,28.5,22s25.2-9.4,28.5-22h50c4.1,0,7.5-3.4,7.5-7.5S230.6,109.5,226.5,109.5z M148,131.5
		c-8,0-14.5-6.5-14.5-14.5s6.5-14.5,14.5-14.5s14.5,6.5,14.5,14.5S156,131.5,148,131.5z"/>
	<path class="st0" d="M226.5,191.4H103.8c-3.3-12.6-14.9-22-28.5-22s-25.2,9.4-28.5,22H7.5c-4.1,0-7.5,3.4-7.5,7.5s3.4,7.5,7.5,7.5
		h39.2c3.3,12.6,14.9,22,28.5,22s25.2-9.4,28.5-22h122.7c4.1,0,7.5-3.4,7.5-7.5S230.6,191.4,226.5,191.4z M75.3,213.4
		c-8,0-14.5-6.5-14.5-14.5s6.5-14.5,14.5-14.5s14.5,6.5,14.5,14.5S83.3,213.4,75.3,213.4z"/>
</g>
</svg>
