<?xml version="1.0" encoding="utf-8"?>
<!-- Generator: Adobe Illustrator 23.0.1, SVG Export Plug-In . SVG Version: 6.00 Build 0)  -->
<svg version="1.1" id="Layer_1" xmlns="http://www.w3.org/2000/svg" xmlns:xlink="http://www.w3.org/1999/xlink" x="0px" y="0px"
	 viewBox="0 0 100 100" style="enable-background:new 0 0 100 100;" xml:space="preserve">
<style type="text/css">
	.st0{fill:#F05640;}
	.st1{fill:#685DA9;}
	.st2{fill:#FFFFFF;}
	.st3{fill:#E5E5E5;}
	.st4{fill:#47B0D2;}
	.st5{fill:#CCCCCC;}
	.st6{fill:#C6CCD0;}
	.st7{fill:#D8DCDB;}
	.st8{fill:#73808A;}
</style>
<g>
	<circle class="st0" cx="50" cy="50" r="50"/>
</g>
<g>
	<path class="st7" d="M77.2,74.9c0,0.7-0.2,1.2-0.7,1.7c-0.5,0.3-0.9,0.6-1.6,0.6H25.1c-0.6,0-1.1-0.2-1.6-0.6
		c-0.5-0.5-0.7-1-0.7-1.7V41.8h54.3V74.9z"/>
	<path class="st6" d="M76.5,76.6c-0.5,0.3-0.9,0.6-1.6,0.6H25.1c-0.6,0-1.1-0.2-1.6-0.6L50,53.9L76.5,76.6z"/>
	<path class="st8" d="M77.2,41.8l-7.7,5.5l-18,12.9c-0.9,0.7-2.2,0.7-3.1,0L30.5,47.3l-7.7-5.5l7.7-5.5l16.8-12l1.2-0.9
		c0.9-0.7,2.2-0.7,3.1,0l1.2,0.9l8,5.8l4,2.8l4.6,3.4L77.2,41.8z"/>
	<path class="st2" d="M69.5,31.2v16.1l-18,12.9c-0.9,0.7-2.2,0.7-3.1,0L30.5,47.3V26.5c0-1.2,1-2.3,2.3-2.3h29.5L69.5,31.2z"/>
	<path class="st7" d="M62.5,29.4c0,1,0.8,1.8,1.8,1.8h5.2l-7-7L62.5,29.4L62.5,29.4z"/>
</g>
</svg>
