<?xml version="1.0" encoding="utf-8"?>
<!-- Generator: Adobe Illustrator 23.0.1, SVG Export Plug-In . SVG Version: 6.00 Build 0)  -->
<svg version="1.1" id="Layer_1" xmlns="http://www.w3.org/2000/svg" xmlns:xlink="http://www.w3.org/1999/xlink" x="0px" y="0px"
	 viewBox="0 0 100 100" style="enable-background:new 0 0 100 100;" xml:space="preserve">
<style type="text/css">
	.st0{fill:#F05640;}
	.st1{fill:#685DA9;}
	.st2{fill:#FFFFFF;}
	.st3{fill:#E5E5E5;}
	.st4{fill:#47B0D2;}
	.st5{fill:#CCCCCC;}
	.st6{fill:#C6CCD0;}
	.st7{fill:#D8DCDB;}
	.st8{fill:#73808A;}
</style>
<g>
	<circle class="st4" cx="50" cy="50" r="50"/>
	<path class="st3" d="M74.3,21.3c-0.5-0.3-1.1-0.4-1.6-0.1l-53.7,25c-0.9,0.4-1.5,1.4-1.5,2.4c0,1,0.6,1.9,1.6,2.3l49.5,21.6
		c1.7,0.8,3.6-0.4,3.7-2.2L75,22.8C75,22.2,74.8,21.6,74.3,21.3z"/>
	<polygon class="st5" points="33.5,57.3 36.9,79.7 74.1,21.2 	"/>
	<path class="st2" d="M72.6,21.2l-53.7,25c-0.9,0.4-1.5,1.4-1.5,2.4c0,1,0.6,2,1.6,2.4l14.6,6.3l40.5-36.1
		C73.6,21,73.1,21,72.6,21.2z"/>
	<polygon class="st3" points="41.3,60.7 36.9,79.7 74.1,21.2 	"/>
	<path class="st2" d="M74.3,21.3c-0.1,0-0.1-0.1-0.2-0.1L41.3,60.7l27.2,11.8c1.7,0.8,3.6-0.4,3.7-2.2L75,22.8
		C75,22.2,74.8,21.6,74.3,21.3z"/>
</g>
</svg>
