<?xml version="1.0" encoding="iso-8859-1"?>
<!-- Generator: Adobe Illustrator 23.0.1, SVG Export Plug-In . SVG Version: 6.00 Build 0)  -->
<svg version="1.1" id="Capa_1" xmlns="http://www.w3.org/2000/svg" xmlns:xlink="http://www.w3.org/1999/xlink" x="0px" y="0px"
	 viewBox="-49 141 512 512" style="enable-background:new -49 141 512 512;" xml:space="preserve">
<path d="M413.454,321.008c-2.63,0-5.21,1.069-7.07,2.93c-1.859,1.86-2.93,4.44-2.93,7.07s1.07,5.21,2.93,7.069
	c1.86,1.86,4.44,2.931,7.07,2.931c2.64,0,5.21-1.07,7.07-2.931c1.869-1.859,2.939-4.439,2.939-7.069s-1.07-5.21-2.939-7.07
	C418.664,322.077,416.094,321.008,413.454,321.008z"/>
<path style="fill:#495966;" d="M460.065,143.929c-1.876-1.875-4.42-2.929-7.073-2.929l-245.994,0.013c-5.522,0-9.999,4.478-9.999,10
	v28.597l-94.789,25.399c-5.335,1.43-8.501,6.913-7.071,12.247l49.127,183.342l-42.499,42.499
	c-5.409-7.898-14.491-13.092-24.764-13.092h-95.998c-16.542,0-29.999,13.458-29.999,29.999v162.996
	c0,16.542,13.458,29.999,29.999,29.999h95.998c14.053,0,25.875-9.716,29.115-22.78l11.89,10.369
	c9.179,8.004,20.939,12.412,33.118,12.412h301.867c5.522,0,10-4.478,10-10V151C462.993,148.348,461.94,145.804,460.065,143.929z
	 M87.003,623.001c0,5.513-4.486,10-10,10h-95.998c-5.514,0-10-4.486-10-10V460.005c0-5.514,4.486-10,10-10h37.999h20h37.999
	c5.514,0,10,4.486,10,10V623.001z M117.046,221.739L197,200.315v37.055l-6.702,1.796c-2.563,0.687-4.746,2.362-6.072,4.659
	s-1.686,5.026-0.999,7.588c3.843,14.341-4.698,29.134-19.039,32.977c-2.565,0.688-4.752,2.366-6.077,4.668
	c-1.325,2.301-1.682,5.035-0.989,7.599l38.979,144.338h-20.07L165.69,400.53c-0.329-1.288-0.905-2.475-1.676-3.507L117.046,221.739z
	 M197,283.229v84.381l-18.239-67.535C186.379,296.141,192.615,290.255,197,283.229z M340.663,633H151.126V633
	c-7.345,0-14.438-2.658-19.974-7.485l-24.149-21.061V466.147l43.658-43.658l7.918,30.98c1.132,4.427,5.119,7.523,9.688,7.523
	l196.604,0.012c7.72,0,14,6.28,14,14c0,7.72-6.28,14-14,14H264.13c-5.522,0-10,4.478-10,10c0,5.522,4.478,10,10,10h132.04
	c7.72,0,14,6.28,14,14c0,7.72-6.28,14-14,14H264.13c-5.522,0-10,4.478-10,10c0,5.522,4.478,10,10,10h110.643c7.72,0,14,6.28,14,14
	c0,7.72-6.28,14-14,14H264.13c-5.522,0-10,4.478-10,10c0,5.522,4.478,10,10,10h76.533c7.72,0,14,6.28,14,14
	C354.663,626.72,348.383,633,340.663,633z M403.46,279.275c0,0.007-0.001,0.013-0.001,0.019v210.505
	c-2.35-0.515-4.787-0.795-7.289-0.795h-0.328c1.939-4.273,3.028-9.01,3.028-14c0-18.748-15.252-33.999-33.999-33.999h-16.075
	c17.069-7.32,29.057-24.286,29.057-44.005c0-26.389-21.468-47.858-47.857-47.858c-26.388,0-47.857,21.469-47.857,47.858
	c0,19.719,11.989,36.685,29.057,44.005h-54.663V250.863c17.864-3.893,31.96-17.988,35.852-35.853h75.221
	c3.892,17.865,17.988,31.96,35.852,35.853V279.275z M329.996,424.858c-15.361,0-27.857-12.497-27.857-27.857
	s12.497-27.858,27.857-27.858S357.854,381.64,357.854,397S345.358,424.858,329.996,424.858z M442.995,633h-0.001h-71.359
	c1.939-4.273,3.028-9.01,3.028-14s-1.089-9.727-3.028-14h3.139c18.747,0,33.999-15.252,33.999-33.999
	c0-5.468-1.305-10.635-3.609-15.217c14.396-3.954,25.005-17.149,25.005-32.782c0-7.584-2.498-14.595-6.711-20.255V281.974
	c0-0.007,0.001-0.014,0.001-0.021v-40.018c0-5.522-4.478-10-10-10c-14.847,0-26.924-12.079-26.924-26.925c0-5.522-4.478-10-10-10
	H283.46c-5.522,0-10,4.478-10,10c0,14.847-12.078,26.925-26.924,26.925c-5.522,0-10,4.478-10,10v199.069H217V161.011L442.995,161
	V633z"/>
<path style="fill:#068598;" d="M197,237.37l-6.702,1.796c-2.563,0.687-4.746,2.362-6.072,4.659s-1.686,5.026-0.999,7.588
	c3.843,14.341-4.698,29.134-19.039,32.977c-2.565,0.688-4.752,2.366-6.077,4.668c-1.325,2.301-1.682,5.035-0.989,7.599
	l38.979,144.338L197,367.61l-18.239-67.535c7.618-3.934,13.854-9.82,18.239-16.846V237.37z M329.996,424.858
	c-15.361,0-27.857-12.497-27.857-27.857s12.497-27.858,27.857-27.858S357.854,381.64,357.854,397S345.358,424.858,329.996,424.858z
	 M256.534,441.005V250.863c17.864-3.893,31.96-17.988,35.852-35.853h75.221c3.892,17.865,17.988,31.96,35.852,35.853v28.411
	c0,0.007-0.001,0.013-0.001,0.019v210.505l19.999,12.949V281.974c0-0.007,0.001-0.014,0.001-0.021v-40.018c0-5.522-4.478-10-10-10
	c-14.847,0-26.924-12.079-26.924-26.925c0-5.522-4.478-10-10-10H283.46c-5.522,0-10,4.478-10,10
	c0,14.847-12.078,26.925-26.924,26.925c-5.522,0-10,4.478-10,10v199.069L256.534,441.005z M348.796,441.005
	c17.069-7.32,29.057-24.286,29.057-44.005c0-26.389-21.468-47.858-47.857-47.858c-26.388,0-47.857,21.469-47.857,47.858
	c0,19.719,11.989,36.685,29.057,44.005H348.796z"/>
</svg>
