<svg xmlns="http://www.w3.org/2000/svg" width="28.86" height="32.167" viewBox="0 0 28.86 32.167">
    <path id="prefix__icon_roller" d="M52.978 3.1h-.628V1.216a1.884 1.884 0 0 0-1.882-1.882H37.284v-.045l-7.291.045h-.856a1.884 1.884 0 0 0-1.882 1.882V3.1h-.627a.627.627 0 1 0 0 1.255h.627v2.07a1.885 1.885 0 0 0 1.322 1.8v5.426a1.886 1.886 0 0 0 3.751 0v-3.425c0-.236.295-.443.631-.443s.631.207.631.443l.018 1.016a1.886 1.886 0 0 0 3.751-.01l-.019-2.927h13.128a1.884 1.884 0 0 0 1.882-1.882v-2.07h.627a.628.628 0 0 1 .627.627v4.131a.624.624 0 0 1-.532.62h-.014l-12.3 2.181a1.872 1.872 0 0 0-1.588 1.859v.806h-1.877a1.882 1.882 0 0 0-.085 3.762l-1.135 8.84a3.821 3.821 0 0 0-.034.5 3.764 3.764 0 1 0 7.529 0 3.821 3.821 0 0 0-.034-.5L42.4 18.341a1.882 1.882 0 0 0-.086-3.762H40.43v-.806a.624.624 0 0 1 .532-.62h.014l12.3-2.181a1.872 1.872 0 0 0 1.584-1.861V4.98a1.884 1.884 0 0 0-1.882-1.88zm-17.495 8.58c-.336 0-.631-.207-.631-.443l-.018-1.016a1.886 1.886 0 0 0-3.751.006v3.421c0 .236-.295.443-.631.443s-.631-.207-.631-.443V7.074h-.634a.677.677 0 0 1-.676-.676V1.259A.676.676 0 0 1 29.1.59h6.947l.066 10.647c0 .234-.294.441-.63.441zM51.1 6.423a.628.628 0 0 1-.627.627H37.332l-.04-6.462h13.176a.628.628 0 0 1 .627.627zM39.8 30.2a2.512 2.512 0 0 1-2.51-2.51 2.569 2.569 0 0 1 .023-.342l1.156-9h2.66l1.156 9a2.559 2.559 0 0 1 .023.342A2.512 2.512 0 0 1 39.8 30.2zm2.51-14.367a.627.627 0 0 1 0 1.255h-5.017a.627.627 0 0 1 0-1.255z" transform="translate(-26 .711)" style="fill:#fff"/>
</svg>
