<svg id="info" xmlns="http://www.w3.org/2000/svg" width="12" height="12" viewBox="0 0 12 12">
  <defs>
    <style>
      .cls-1 {
        fill: #c6ccd0;
      }

      .cls-2 {
        font-size: 10px;
        fill: #fff;
        font-family: "Source Sans Pro";
      }
    </style>
  </defs>
  <circle class="cls-1" cx="6" cy="6" r="6"/>
  <text id="i" class="cls-2" transform="translate(4.152 10.282) scale(1.2)">i</text>
</svg>
