<svg xmlns="http://www.w3.org/2000/svg" width="88.978" height="100" viewBox="0 0 88.978 100">
    <defs>
        <style>
            .prefix__cls-2{fill:#8270b3}
        </style>
    </defs>
    <g id="prefix__maino_icon_trees" transform="translate(-31.053 -14.932)">
        <path id="prefix__Path_355" d="M115.373 58.985a16.332 16.332 0 0 0 3.318-5.378c.154-.409.294-.828.415-1.246a1.454 1.454 0 0 0 .053-.513 17.618 17.618 0 0 0 .467-6.082 1.492 1.492 0 0 0-.012-.174 16.546 16.546 0 0 0-16.267-14.349 16.528 16.528 0 0 0-28.8-10.863 16.378 16.378 0 0 0-5.014-2.98 16.679 16.679 0 0 0-21.4 9.978 16.3 16.3 0 0 0-.937 5.892 18.352 18.352 0 0 0-5.957 34.647c.041 5.089 3.725 9.934 9.282 12.03a15.365 15.365 0 0 0 7.512.868l.252 1.389a8.608 8.608 0 0 1-.864 5.563c-.771 1.446-1.687 3.141-2.654 4.778a1.509 1.509 0 0 0 .442 2.043 1.476 1.476 0 0 0 .352.161l12.545 6.285a1.45 1.45 0 0 0 .2.082 1.426 1.426 0 0 0 1.713-.718 5.854 5.854 0 0 0 .244-1.129c.48-2.669 1.158-5.259 1.849-7.716a8.77 8.77 0 0 1 3.146-4.606l.061-.046a15.149 15.149 0 0 0 6.727 4.936c5.558 2.1 11.523.891 14.915-2.9a18.352 18.352 0 0 0 18.41-29.949zM73.5 84.6a11.717 11.717 0 0 0-4.2 6.154c-.615 2.184-1.218 4.471-1.694 6.83l-9.584-4.8c.725-1.274 1.4-2.532 2-3.644a11.549 11.549 0 0 0 1.162-7.466l-2.801-15.35a.464.464 0 0 1 .439-.546l1.483-.055a.466.466 0 0 1 .457.317l3.919 11.747c.01.031.023.061.034.091a2.367 2.367 0 0 0 1.972 1.533h.015a2.4 2.4 0 0 0 1.288-.211l.046-.021.041-.022a2.4 2.4 0 0 0 .946-.9l7.336-12.381a.467.467 0 0 1 .591-.185l1.194.545a.464.464 0 0 1 .215.642L73.4 76.067a2.423 2.423 0 0 0-.154.35 2.4 2.4 0 0 0 .516 2.432q.066.071.137.135a2.4 2.4 0 0 0 2.616.4l6.144-2.825a.463.463 0 0 1 .327-.022h.021a.462.462 0 0 1 .2.142.475.475 0 0 1 .05.075.462.462 0 0 1-.13.59zm23.4 1.253a1.466 1.466 0 0 0-1.639.53c-2.419 3.317-7.539 4.455-12.174 2.706a12.207 12.207 0 0 1-5.42-3.956l7.226-5.433a3.4 3.4 0 0 0-3.46-5.8l-4.7 2.16 4.206-7.795a3.395 3.395 0 0 0-1.268-4.54 3.324 3.324 0 0 0-.31-.162l-1.194-.545a3.387 3.387 0 0 0-4.331 1.358l-3.371 5.689-3.371 5.689-3.55-10.642a3.361 3.361 0 0 0-.509-.964v-.005c-.023-.031-.049-.06-.074-.09a3.44 3.44 0 0 0-1.169-.925l-.044-.019c-.067-.031-.134-.061-.2-.088a3.362 3.362 0 0 0-1.344-.227l-1.483.055a3.4 3.4 0 0 0-3.215 4l2.013 11.08a12.428 12.428 0 0 1-5.953-.726c-4.636-1.749-7.728-5.985-7.354-10.072a1.466 1.466 0 0 0-.881-1.48 15.419 15.419 0 0 1 5.5-29.572 1.466 1.466 0 0 0 1.4-1.635 13.441 13.441 0 0 1 .769-6.37 13.612 13.612 0 0 1 17.52-7.923 13.465 13.465 0 0 1 5.093 3.391 1.466 1.466 0 0 0 2.249-.137 13.6 13.6 0 0 1 24.5 9.242 1.466 1.466 0 0 0 1.6 1.589 13.6 13.6 0 0 1 14.746 11.746 1.468 1.468 0 0 0 .125.427 15.215 15.215 0 0 1-.489 4.983 1.467 1.467 0 0 0-.054.153c-.1.344-.215.69-.342 1.028a13.442 13.442 0 0 1-3.618 5.3 1.466 1.466 0 0 0-.03 2.151 15.419 15.419 0 0 1-15.4 25.834z" data-name="Path 355" style="fill:#fff"/>
        <path id="prefix__Path_356" d="M166.791 274.311a11.717 11.717 0 0 0-4.2 6.154c-.615 2.184-1.218 4.471-1.694 6.83l-9.584-4.8c.725-1.274 1.4-2.532 2-3.644a11.548 11.548 0 0 0 1.162-7.466l-2.789-15.354a.464.464 0 0 1 .439-.546l1.483-.055a.466.466 0 0 1 .457.317l3.919 11.747c.01.031.023.061.034.091a2.367 2.367 0 0 0 1.972 1.533h.015a2.4 2.4 0 0 0 1.286-.215l.046-.021.041-.022a2.4 2.4 0 0 0 .946-.9l7.336-12.381a.467.467 0 0 1 .591-.185l1.194.545a.464.464 0 0 1 .215.642l-4.962 9.195a2.4 2.4 0 0 0 .362 2.782q.066.071.137.135a2.4 2.4 0 0 0 2.616.4l6.144-2.825a.463.463 0 0 1 .327-.022h.021a.463.463 0 0 1 .2.142.473.473 0 0 1 .05.075.462.462 0 0 1-.13.59zm4.166.534l7.229-5.442a3.4 3.4 0 0 0-3.46-5.8l-4.7 2.16 4.206-7.795a3.395 3.395 0 0 0-1.268-4.54 3.328 3.328 0 0 0-.31-.162l-1.194-.545a3.387 3.387 0 0 0-4.331 1.358l-3.371 5.689-3.371 5.689-3.55-10.642a3.361 3.361 0 0 0-.509-.964v-.005c-.023-.031-.049-.06-.074-.09a3.44 3.44 0 0 0-1.169-.925l-.044-.019c-.067-.031-.134-.061-.2-.088a3.362 3.362 0 0 0-1.344-.227l-1.483.055a3.4 3.4 0 0 0-3.215 4l2.013 11.08.523 2.885.252 1.389a8.608 8.608 0 0 1-.864 5.563c-.771 1.446-1.687 3.141-2.654 4.778a1.509 1.509 0 0 0 .442 2.043 1.477 1.477 0 0 0 .352.161l12.537 6.289a1.449 1.449 0 0 0 .2.082 1.426 1.426 0 0 0 1.713-.718 5.853 5.853 0 0 0 .244-1.129c.48-2.669 1.158-5.259 1.849-7.716a8.77 8.77 0 0 1 3.146-4.606l.061-.046z" class="prefix__cls-2" data-name="Path 356" transform="translate(-93.294 -189.706)"/>
        <path id="prefix__Path_357" d="M131.6 451.9a27.75 27.75 0 0 1-5.5-10.588 2.318 2.318 0 0 0-1.589-1.514l-16.211 1.018a1.426 1.426 0 0 0-1.3 1.1 1.484 1.484 0 0 0-.066.175 26.284 26.284 0 0 1-5.128 9.771 1.517 1.517 0 0 0-.361 1.269 1.467 1.467 0 0 0 1.44 1.19h27.555a1.509 1.509 0 0 0 1.2-.564 1.467 1.467 0 0 0-.04-1.857zm-25.755-.512a30.238 30.238 0 0 0 3.691-7.794l13.921-.874a31.539 31.539 0 0 0 4.064 8.668z" class="prefix__cls-2" data-name="Path 357" transform="translate(-56.209 -339.389)"/>
    </g>
</svg>
