<svg xmlns="http://www.w3.org/2000/svg" width="100.11" height="100" viewBox="0 0 100.11 100">
    <g id="prefix__maino_icon_avarii" transform="translate(-42 -28.1)">
        <path id="prefix__Path_353" d="M140.434 59.72h-11.676a1.681 1.681 0 0 0-1.676 1.676v5.028h-15.027v-1.677a1.681 1.681 0 0 0-1.676-1.676h-6.648v-8.323a1.681 1.681 0 0 0-1.676-1.676h-5.028v-10h4.86l10 2.011a7.121 7.121 0 0 0 2.793-13.966 7.82 7.82 0 0 0-2.793 0l-10 2.011h-4.86v-3.352a1.681 1.681 0 0 0-1.676-1.676H88.7a1.681 1.681 0 0 0-1.676 1.676v3.352h-4.86l-10-2.011a7.121 7.121 0 0 0-2.793 13.966 5.9 5.9 0 0 0 2.793 0l10-2.011h4.86v10H82a1.681 1.681 0 0 0-1.676 1.676v8.324h-6.649A1.681 1.681 0 0 0 72 64.747V68.1h-8.324A21.7 21.7 0 0 0 42 89.775v10a1.681 1.681 0 0 0 1.676 1.676h16.7a1.681 1.681 0 0 0 1.676-1.676v-10a1.681 1.681 0 0 1 1.68-1.675h8.324v3.352a1.681 1.681 0 0 0 1.676 1.676h36.7a1.681 1.681 0 0 0 1.676-1.676v-1.677h15.028V94.8a1.681 1.681 0 0 0 1.676 1.676h11.62a1.681 1.681 0 0 0 1.678-1.676V61.451a1.66 1.66 0 0 0-1.676-1.731zm-38.323-23.352a.709.709 0 0 0 .335-.056l10.112-2.012a3.791 3.791 0 1 1 1.508 7.43 3.436 3.436 0 0 1-1.508 0l-10.112-2.01c-.112 0-.223-.056-.335-.056h-5.028v-3.352h5.028zm-8.38 3.352h-3.352v-3.352h3.352zm-3.3-8.38h3.352v1.676h-3.348zm-8.38 8.38a.709.709 0 0 0-.335.056l-10.108 2.011a3.791 3.791 0 1 1-1.508-7.43 3.436 3.436 0 0 1 1.508 0l10.112 2.011c.112 0 .223.056.335.056h5.028v3.352h-5.028zm8.38 3.3h3.352v10h-3.348zm-6.7 13.352h16.7v6.648h-16.7zm-20 28.379a5.043 5.043 0 0 0-5.031 5.024V98.1H45.352v-8.325a18.334 18.334 0 0 1 18.324-18.324H72V84.8l-8.268-.056zm45.027 4.972H75.407V66.368h33.351zm3.352-3.3v-16.7h15.028v16.7zm26.648 6.648h-8.324v-30h8.324z" data-name="Path 353" style="fill:#fff"/>
        <path id="prefix__Path_354" d="M53.356 188.662a8.284 8.284 0 0 0 7.262-4.022 7.5 7.5 0 0 0 .168-7.43l-5.978-11.061a1.726 1.726 0 0 0-2.4-.559 1.775 1.775 0 0 0-.559.559L45.87 177.21a7.367 7.367 0 0 0 .168 7.43 8.375 8.375 0 0 0 7.318 4.022zm-4.525-9.832l4.469-8.324 4.469 8.324a4.063 4.063 0 0 1-.112 4.134 5.2 5.2 0 0 1-4.413 2.4 4.957 4.957 0 0 1-4.413-2.4 4.5 4.5 0 0 1 0-4.134z" data-name="Path 354" transform="translate(-1.301 -60.564)" style="fill:#8270b3"/>
    </g>
</svg>
