<svg xmlns="http://www.w3.org/2000/svg" width="106.445" height="100" viewBox="0 0 106.445 100">
    <defs>
        <style>
            .prefix__cls-1{fill:#495966}.prefix__cls-2{fill:#8270b3}
        </style>
    </defs>
    <g id="prefix__maino_icon_adv_7" transform="translate(0 -15.5) translate(0 15.5)">
        <g id="prefix__Group_219" data-name="Group 219">
            <path id="prefix__Path_411" d="M84.556 15.5H21.889a21.889 21.889 0 1 0 0 43.779h15.939v17.684l-.778-.653a10.132 10.132 0 0 0-13.417.586 8.752 8.752 0 0 0 .567 13.032l13.626 11.434v11.02a3.119 3.119 0 0 0 3.119 3.119h37.423a3.119 3.119 0 0 0 3.118-3.119V77.339a9.37 9.37 0 0 0-8.2-9.284l-16.748-2.087v-6.69h28.018a21.889 21.889 0 1 0 0-43.778zm-40.492 93.763v-6.237h31.185v6.237zm28.453-35.019a3.123 3.123 0 0 1 2.733 3.095v19.45H42.081L28.21 85.15a2.525 2.525 0 0 1-.168-3.843 3.875 3.875 0 0 1 5-.218l5.9 4.952a3.121 3.121 0 0 0 5.123-2.389V43.774a3.119 3.119 0 1 1 6.237 0v24.948a3.119 3.119 0 0 0 2.733 3.095zm12.039-21.2H56.538v-9.27a9.356 9.356 0 0 0-18.711 0v9.267H21.889a15.652 15.652 0 1 1 0-31.3h62.667a15.652 15.652 0 0 1 0 31.3z" class="prefix__cls-1" data-name="Path 411" transform="translate(0 -15.5)"/>
            <path id="prefix__Path_412" d="M320.524 76.413l-10.269 10.269-4.032-4.032a3.118 3.118 0 1 0-4.41 4.41l6.237 6.24a3.118 3.118 0 0 0 4.41 0l12.474-12.474a3.118 3.118 0 0 0-4.41-4.41z" class="prefix__cls-1" data-name="Path 412" transform="translate(-238.342 -63.026)"/>
        </g>
        <g id="prefix__Group_220" data-name="Group 220">
            <path id="prefix__Path_413" d="M56.538 59.278h28.018a21.889 21.889 0 1 0 0-43.778H21.889a21.889 21.889 0 1 0 0 43.779h15.939v-6.237H21.889a15.652 15.652 0 1 1 0-31.3h62.667a15.652 15.652 0 0 1 0 31.3H56.538z" class="prefix__cls-2" data-name="Path 413" transform="translate(0 -15.5)"/>
            <path id="prefix__Path_414" d="M320.524 76.413l-10.269 10.269-4.032-4.032a3.118 3.118 0 1 0-4.41 4.41l6.237 6.24a3.118 3.118 0 0 0 4.41 0l12.474-12.474a3.118 3.118 0 0 0-4.41-4.41z" class="prefix__cls-2" data-name="Path 414" transform="translate(-238.342 -63.026)"/>
        </g>
    </g>
</svg>
