<svg xmlns="http://www.w3.org/2000/svg" width="96.572" height="100" viewBox="0 0 96.572 100">
    <g id="prefix__maino_icon_thief" transform="translate(-39.1 -39.1)">
        <path id="prefix__Path_370" d="M84.07 95.9h6.864a1.6 1.6 0 0 0 0-3.2H84.07a1.6 1.6 0 0 0 0 3.2zm45.03 16.45a.116.116 0 0 1-.118-.118l-12.249-4.675a4.386 4.386 0 0 1-2.722-2.781l-.473-1.479c2.781-3.965 3.787-7.751 1.183-11.657a11.058 11.058 0 0 0-4.379-3.905 34.828 34.828 0 0 0 1.183-9.053v-.118h.118a3.334 3.334 0 0 0 3.373-3.373V71.7a3.242 3.242 0 0 0-1.716-2.9v-3.96a25.858 25.858 0 0 0-51.716.118v3.964a3.461 3.461 0 0 0-1.716 2.9v3.491a3.334 3.334 0 0 0 3.373 3.373h.118v.114a34.829 34.829 0 0 0 1.183 9.053 9.865 9.865 0 0 0-4.379 3.905c-2.6 3.905-1.479 7.751 1.183 11.657l-.473 1.479a4.386 4.386 0 0 1-2.722 2.781L45.9 112.354a.116.116 0 0 0-.118.118 11.655 11.655 0 0 0-6.682 10.652v10.888a5.127 5.127 0 0 0 5.089 5.089h86.391a5.127 5.127 0 0 0 5.089-5.089v-10.888a11.845 11.845 0 0 0-6.568-10.769zm-17.041-18.93c.888 1.42 1.716 3.491-.71 7.4a40.769 40.769 0 0 1-5.385 6.272 1.746 1.746 0 0 1-1.3-1.775v-6.039a25.917 25.917 0 0 0 4.675-8.284 6.709 6.709 0 0 1 2.722 2.426zm-44.675-7.87h.416a4.036 4.036 0 0 1 3.018 1.3 7.437 7.437 0 0 0 5.266 2.189H98.8a7.237 7.237 0 0 0 5.266-2.189 4.41 4.41 0 0 1 3.018-1.3h.414c-2.308 11.065-10.355 19.172-19.941 19.172-9.7 0-17.751-8.107-20.178-19.172zm4.793 23.314a5.023 5.023 0 0 0 1.42-3.491v-2.781a20.8 20.8 0 0 0 27.929 0v2.781a4.593 4.593 0 0 0 1.42 3.491 28.241 28.241 0 0 1-15.385 4.5 29.274 29.274 0 0 1-15.385-4.5zm15.385 7.692a34.251 34.251 0 0 0 10.888-1.893c-4.379 4.5-8.7 9.349-10.888 14.852-2.189-5.5-6.391-10.355-10.888-14.852a31.016 31.016 0 0 0 10.888 1.893zm24.2-41.243c0 .118 0 .118-.118.118h-3.609v-3.668h3.609c.118 0 .118 0 .118.118zm-12.249.059V71.7h5.387v3.669zm-10.355 0V71.7h7.1v3.669zm-10.414 0V71.7h7.1v3.669zm-8.639 0V71.7h5.385v3.669zm31.3-6.864h-7.1V64.9a86.923 86.923 0 0 0-1.6-17.456 23.276 23.276 0 0 0-1.124-4.083 14.455 14.455 0 0 1 5.5 5.266c2.781 4.26 4.26 10.059 4.26 16.272.067.001.067 3.609.067 3.609zm-17.456 0V64.9a88.933 88.933 0 0 1 1.3-15.858c.769-4.379 1.775-6.095 2.308-6.686.473.473 1.42 2.308 2.308 6.686a94.816 94.816 0 0 1 1.3 15.858v3.609zM83.42 43.36c-.414 1.124-.769 2.485-1.183 4.083a86.923 86.923 0 0 0-1.6 17.456v3.609h-7.1V64.9c0-6.154 1.479-11.953 4.26-16.272a14.7 14.7 0 0 1 5.623-5.268zm26.627 21.54v3.609h-5.385V64.9a33.463 33.463 0 0 0-4.793-17.93 18.665 18.665 0 0 0-1.124-1.6 22.555 22.555 0 0 1 11.3 19.527zM76.26 45.372a10.935 10.935 0 0 0-1.124 1.6A33.611 33.611 0 0 0 70.343 64.9v3.609h-5.326V64.9A22.259 22.259 0 0 1 76.26 45.372zM63.183 75.313v-3.491c0-.118 0-.118.118-.118h3.609v3.669H63.3l-.118-.059zm14.083 3.254V80.4a1.6 1.6 0 0 0 3.2 0v-1.833h14.078V80.4a1.6 1.6 0 1 0 3.2 0v-1.833h10.592v.118c0 1.183-.118 2.367-.178 3.609h-.888a7.237 7.237 0 0 0-5.27 2.191 4.41 4.41 0 0 1-3.018 1.3H76.26a4.036 4.036 0 0 1-3.018-1.3 7.437 7.437 0 0 0-5.266-2.185h-.888a35.963 35.963 0 0 1-.178-3.609v-.118zM62.887 93.42a7.273 7.273 0 0 1 2.722-2.485 32.309 32.309 0 0 0 4.675 8.284v6.035a1.88 1.88 0 0 1-1.3 1.775 40.768 40.768 0 0 1-5.385-6.272c-2.367-3.846-1.6-5.917-.71-7.337zm-20.414 40.591v-10.887a8.713 8.713 0 0 1 4.793-7.751l12.189-4.673a7.577 7.577 0 0 0 4.379-4.26c1.893 2.189 4.2 4.379 6.509 6.686 6.864 6.568 14.675 14.142 15.562 22.722H59.692v-5.266a1.6 1.6 0 0 0-3.2 0v5.266H44.307a1.806 1.806 0 0 1-1.834-1.834zm90.059 0a1.743 1.743 0 0 1-1.775 1.775h-12.19v-5.266a1.6 1.6 0 1 0-3.2 0v5.266H89.218c.888-8.58 8.58-16.154 15.444-22.84 2.308-2.308 4.615-4.5 6.509-6.686a7.41 7.41 0 0 0 4.379 4.26l12.189 4.675a8.566 8.566 0 0 1 4.793 7.751v11.065z" data-name="Path 370" style="fill:#fff"/>
        <path id="prefix__Path_371" d="M125.857 78.686v-.118h.118a3.334 3.334 0 0 0 3.373-3.373V71.7a3.242 3.242 0 0 0-1.716-2.9v-3.96a25.858 25.858 0 0 0-51.716.118v3.964a3.461 3.461 0 0 0-1.716 2.9v3.491a3.334 3.334 0 0 0 3.373 3.373h.118v.114zm.237-3.373c0 .118 0 .118-.118.118h-3.609v-3.668h3.609c.118 0 .118 0 .118.118zm-12.249.059V71.7h5.385v3.669zm-10.355 0V71.7h7.1v3.669zm-10.414 0V71.7h7.1v3.669zm-8.639 0V71.7h5.385v3.669zm31.3-6.864h-7.1V64.9a86.923 86.923 0 0 0-1.6-17.456 23.276 23.276 0 0 0-1.124-4.083 14.455 14.455 0 0 1 5.5 5.266c2.781 4.26 4.26 10.059 4.26 16.272.065.001.065 3.609.065 3.609zm-17.456 0V64.9a88.933 88.933 0 0 1 1.3-15.858c.769-4.379 1.775-6.095 2.308-6.686.473.473 1.42 2.308 2.308 6.686A94.816 94.816 0 0 1 105.5 64.9v3.609zM97.75 43.36c-.414 1.124-.769 2.485-1.183 4.083a86.923 86.923 0 0 0-1.6 17.456v3.609h-7.1V64.9c0-6.154 1.479-11.953 4.26-16.272a14.7 14.7 0 0 1 5.623-5.268zm26.628 21.54v3.609h-5.385V64.9a33.463 33.463 0 0 0-4.793-17.93 18.666 18.666 0 0 0-1.124-1.6 22.555 22.555 0 0 1 11.3 19.527zM90.591 45.372a10.935 10.935 0 0 0-1.124 1.6A33.611 33.611 0 0 0 84.673 64.9v3.609h-5.325V64.9a22.259 22.259 0 0 1 11.243-19.528zM77.514 75.313v-3.491c0-.118 0-.118.118-.118h3.609v3.669h-3.609l-.118-.059z" data-name="Path 371" transform="translate(-14.331)" style="fill:#8270b3"/>
    </g>
</svg>
