<svg xmlns="http://www.w3.org/2000/svg" width="40" height="40" viewBox="0 0 40 40">
    <path id="prefix__maino_step-2_plane" fill="#a1abb3" d="M-234.393-1080.438l-6.579-6.579 3.229-20.56a.55.55 0 0 0-.154-.473l-3.513-3.513a.542.542 0 0 0-.5-.149.542.542 0 0 0-.4.337l-6.479 16.542-6.5-6.5-.45-7.686a.549.549 0 0 0-.16-.356l-2.215-2.215a.541.541 0 0 0-.48-.153.542.542 0 0 0-.4.3l-3.8 7.871-2.212-2.212a.562.562 0 0 0-.776 0 .545.545 0 0 0-.161.388.545.545 0 0 0 .161.388l2.208 2.208-7.868 3.8a.543.543 0 0 0-.3.4.543.543 0 0 0 .153.48l2.215 2.215a.548.548 0 0 0 .356.16l7.686.45 6.591 6.591-16.539 6.478a.543.543 0 0 0-.337.4.543.543 0 0 0 .149.5l3.513 3.513a.549.549 0 0 0 .473.154l20.556-3.229 6.486 6.486a11.608 11.608 0 0 0 3.75 2.133c1.4.5 3.29.891 4.3-.123s.627-2.9.124-4.3a11.615 11.615 0 0 0-2.127-3.746zm-7.2-29.756l2.722 2.722-3.062 19.494-6.008-6.008zm-25.783 31.415l-2.722-2.722 16.2-6.347 6.007 6.008zm34.215 5.618a1.45 1.45 0 0 1-1.037.313 6.589 6.589 0 0 1-2.12-.446 10.779 10.779 0 0 1-3.344-1.876l-21.188-21.187-7.894-.462-1.521-1.521 7.516-3.632 1.629 1.629a.562.562 0 0 0 .776 0 .55.55 0 0 0 0-.776l-1.625-1.625 3.629-7.52 1.52 1.52.462 7.895 21.188 21.188a10.784 10.784 0 0 1 1.876 3.345c.544 1.516.594 2.696.134 3.156z" transform="translate(271.749 1111.749)"/>
</svg>
