<svg xmlns="http://www.w3.org/2000/svg" width="41.428" height="40" viewBox="0 0 41.428 40">
    <path id="prefix__maino_step-2_freeze-pipes" fill="#a1abb3" d="M-266.951-810.755h-7.173v-9.951h7.173zm2.777.579a.81.81 0 0 1-.809.81.811.811 0 0 1-.81-.81v-11.109a.8.8 0 0 1 .25-.578.761.761 0 0 1 .561-.231.81.81 0 0 1 .808.809zm4.63-25.11h9.951v7.173h-9.951zm-1.389 9.141a.794.794 0 0 1 .248-.577.771.771 0 0 1 .563-.233h11.107a.81.81 0 0 1 .809.809.81.81 0 0 1-.809.81h-11.109a.81.81 0 0 1-.809-.809zm13.036 15.973a.579.579 0 0 0 .579.575h1.289l.027.077a1.972 1.972 0 0 0 1.847 1.312 1.972 1.972 0 0 0 1.848-1.312l.027-.077h8.424v-12.267h-8.426l-.008-.024a1.993 1.993 0 0 0-2.411-1.287 1.946 1.946 0 0 0-1.3 1.234l-.027.077h-1.6a.81.81 0 0 1-.809-.809v-1.6l.024-.008a1.993 1.993 0 0 0 1.287-2.411 1.946 1.946 0 0 0-1.234-1.3l-.077-.027v-8.426H-260.7v8.425l-.078.027a1.869 1.869 0 0 0-.724.453 1.933 1.933 0 0 0-.587 1.394 1.972 1.972 0 0 0 1.312 1.847l.077.027v1.6a.81.81 0 0 1-.809.809h-1.6l-.027-.077a1.972 1.972 0 0 0-1.847-1.312 1.972 1.972 0 0 0-1.848 1.312l-.027.077h-8.424v12.263h8.426l.027.077a1.957 1.957 0 0 0 2.49 1.2 1.944 1.944 0 0 0 1.2-1.2l.027-.077h1.319a.579.579 0 0 0 .579-.589.579.579 0 0 0-.579-.57h-1.225v-9.951h1.5a1.968 1.968 0 0 0 1.968-1.968v-1.5h9.951v1.5a1.968 1.968 0 0 0 1.968 1.968h1.5v9.951h-1.2a.579.579 0 0 0-.579.583zm4.552 0a.8.8 0 0 1-.249.578.78.78 0 0 1-.554.232h-.008a.81.81 0 0 1-.808-.81v-11.109a.81.81 0 0 1 .809-.809.81.81 0 0 1 .81.809zm1.158-10.53h7.173v9.951h-7.173zm-6.1 13.219a.491.491 0 0 0-.671-.177l-1.465.855c-.064-.328-.133-.741-.185-1.11a.491.491 0 0 0-.554-.417.491.491 0 0 0-.418.554c.069.492.162 1.069.265 1.493l-1.065.621c-.023-.259-.041-.566-.052-.859a.483.483 0 0 0-.023-.407.488.488 0 0 0-.453-.251h-.022c-.009 0-.017.005-.026.006a.491.491 0 0 0-.208.051c-.309.169-.664.349-.944.483v-1.184c.425-.121.986-.332 1.465-.526a.491.491 0 0 0 .271-.639.49.49 0 0 0-.639-.271c-.364.147-.779.3-1.1.412v-1.821a.49.49 0 0 0-.491-.491.491.491 0 0 0-.491.491v1.819c-.322-.109-.735-.264-1.1-.41a.49.49 0 0 0-.639.271.491.491 0 0 0 .271.639c.479.194 1.041.4 1.465.526v1.159c-.28-.131-.611-.3-.9-.458a.474.474 0 0 0-.252-.052.485.485 0 0 0-.091.008.46.46 0 0 0-.052.014.483.483 0 0 0-.128.035.49.49 0 0 0-.245.413c-.008.347-.03.739-.053 1.046l-1-.58c.107-.428.2-1.027.276-1.536a.491.491 0 0 0-.418-.554.494.494 0 0 0-.554.417c-.055.388-.128.826-.192 1.156l-1.544-.9a.491.491 0 0 0-.671.177.491.491 0 0 0 .176.671l1.545.9c-.257.226-.593.5-.9.747a.49.49 0 0 0-.085.688.49.49 0 0 0 .387.189.487.487 0 0 0 .3-.1c.407-.317.868-.7 1.186-1l1 .586c-.262.185-.593.4-.9.588a.489.489 0 0 0-.236.419.489.489 0 0 0 .236.419c.308.188.643.408.9.585l-1.009.589c-.317-.307-.779-.686-1.186-1a.49.49 0 0 0-.689.085.491.491 0 0 0 .085.688c.314.244.651.524.906.746l-1.547.9a.49.49 0 0 0-.176.671.49.49 0 0 0 .424.243.493.493 0 0 0 .247-.067l1.542-.9c.066.334.139.768.194 1.155a.491.491 0 0 0 .485.422.468.468 0 0 0 .069 0 .491.491 0 0 0 .418-.554c-.072-.509-.169-1.108-.276-1.536l.991-.578c.028.314.049.7.057 1.044a.489.489 0 0 0 .245.413.468.468 0 0 0 .126.034.464.464 0 0 0 .058.016.515.515 0 0 0 .061.016c.01 0 .02-.007.031-.008a.476.476 0 0 0 .246-.052c.294-.16.63-.331.9-.463v1.254c-.425.121-.986.332-1.465.525a.49.49 0 0 0-.271.638.491.491 0 0 0 .639.271c.364-.147.78-.3 1.1-.411v1.729a.49.49 0 0 0 .491.491.49.49 0 0 0 .491-.491v-1.727c.322.109.735.264 1.1.41a.49.49 0 0 0 .184.036.492.492 0 0 0 .455-.307.49.49 0 0 0-.271-.638c-.479-.194-1.041-.4-1.465-.525v-1.269c.289.134.637.309.944.478a.491.491 0 0 0 .259.055c.007 0 .013.005.02.005a.49.49 0 0 0 .43-.255.483.483 0 0 0 .023-.407c.01-.3.028-.607.048-.862l1.069.624c-.1.424-.2 1-.265 1.493a.491.491 0 0 0 .418.554.47.47 0 0 0 .069 0 .491.491 0 0 0 .485-.422c.052-.371.121-.787.183-1.111l1.467.856a.493.493 0 0 0 .247.067.49.49 0 0 0 .424-.243.49.49 0 0 0-.176-.671l-1.494-.871c.26-.23.612-.522.938-.777a.491.491 0 0 0 .085-.688.492.492 0 0 0-.689-.085 15.627 15.627 0 0 0-1.218 1.034l-1.058-.617c.262-.185.593-.4.9-.588a.489.489 0 0 0 .236-.419.489.489 0 0 0-.236-.419c-.308-.188-.643-.408-.9-.585l1.062-.62a15.64 15.64 0 0 0 1.218 1.034.489.489 0 0 0 .3.1.49.49 0 0 0 .387-.189.491.491 0 0 0-.085-.689c-.328-.256-.683-.55-.94-.775l1.5-.872a.491.491 0 0 0 .186-.683zm-8.093 4.153a7.743 7.743 0 0 0-.645-.471 7.7 7.7 0 0 0 .645-.471l.807.471zm1.291 1.311a7.77 7.77 0 0 0-.723.32 7.713 7.713 0 0 0-.083-.777l.806-.47zm0-2.636l-.806-.47a7.708 7.708 0 0 0 .083-.777 7.746 7.746 0 0 0 .723.32zm.981-.917a6.86 6.86 0 0 0 .724-.312c.02.3.047.556.082.759l-.806.47v-.917zm.724 3.855a6.893 6.893 0 0 0-.724-.312v-.917l.806.47c-.031.199-.059.451-.078.755zm.567-1.612l-.807-.471.807-.471a7.678 7.678 0 0 0 .645.471 7.732 7.732 0 0 0-.642.467z" transform="translate(275.283 836.444)"/>
</svg>
