<?xml version="1.0" encoding="utf-8"?>
<!-- Generator: Adobe Illustrator 23.0.1, SVG Export Plug-In . SVG Version: 6.00 Build 0)  -->
<svg version="1.1" id="Layer_1" xmlns="http://www.w3.org/2000/svg" xmlns:xlink="http://www.w3.org/1999/xlink" x="0px" y="0px"
	 viewBox="0 0 100 100" style="enable-background:new 0 0 100 100;" xml:space="preserve">
<style type="text/css">
	.st0{fill:#F05640;}
	.st1{fill:#685DA9;}
	.st2{fill:#FFFFFF;}
	.st3{fill:#E5E5E5;}
	.st4{fill:#47B0D2;}
	.st5{fill:#CCCCCC;}
	.st6{fill:#C6CCD0;}
	.st7{fill:#D8DCDB;}
	.st8{fill:#73808A;}
</style>
<g>
	<circle class="st0" cx="50" cy="50" r="50"/>
	<g>
		<path class="st2" d="M18.8,79.2l4.4-13.3c-2.2-3.8-3.5-8.2-3.5-12.9c0-13.9,11.3-25.3,25.3-25.3c13.9,0,25.3,11.3,25.3,25.3
			c0,13.9-11.3,25.3-25.3,25.3c-4.2,0-8.2-1.1-11.8-2.9L18.8,79.2z M18.8,79.2"/>
		<path class="st6" d="M44.9,27.8c13.9,0,25.3,11.3,25.3,25.3c0,3.7-0.8,7.2-2.2,10.4l14.2,3.8l-4.4-13.3c2.2-3.8,3.5-8.2,3.5-12.9
			c0-13.9-11.3-25.3-25.2-25.3c-10.3,0-19.2,6.2-23.1,15C36.5,28.9,40.6,27.8,44.9,27.8L44.9,27.8z M44.9,27.8"/>
		<path class="st6" d="M36.3,52.9c0,1.8-1.5,3.3-3.3,3.3c-1.8,0-3.3-1.5-3.3-3.3c0-1.8,1.5-3.3,3.3-3.3
			C34.8,49.6,36.3,51.1,36.3,52.9L36.3,52.9z M36.3,52.9"/>
		<path class="st6" d="M48.3,52.9c0,1.8-1.5,3.3-3.3,3.3c-1.8,0-3.3-1.5-3.3-3.3c0-1.8,1.5-3.3,3.3-3.3
			C46.8,49.6,48.3,51.1,48.3,52.9L48.3,52.9z M48.3,52.9"/>
		<path class="st6" d="M60.3,52.9c0,1.8-1.5,3.3-3.3,3.3c-1.8,0-3.3-1.5-3.3-3.3c0-1.8,1.5-3.3,3.3-3.3
			C58.9,49.6,60.3,51.1,60.3,52.9L60.3,52.9z M60.3,52.9"/>
	</g>
</g>
</svg>
