<svg xmlns="http://www.w3.org/2000/svg" width="24.999" height="73" viewBox="0 0 24.999 73">
    <path id="prefix__Shape_525" d="M806.256 1117a2.809 2.809 0 00-3.516 0h-2.482a2.831 2.831 0 01-2.826-2.829v-24.3h-2.606a2.831 2.831 0 01-2.826-2.829v-18.19a8.513 8.513 0 018.5-8.509h8a8.513 8.513 0 018.5 8.509V1087.04a2.832 2.832 0 01-2.827 2.83h-2.606v24.3a2.831 2.831 0 01-2.826 2.829zm-.689-19.841v17.013a.691.691 0 00.689.689h2.483a.691.691 0 00.689-.689v-45.318a1.068 1.068 0 112.137 0v18.877h2.606a.692.692 0 00.69-.692v-18.158a.051.051 0 010-.012.124.124 0 010-.018 6.373 6.373 0 00-6.363-6.369h-8a6.372 6.372 0 00-6.362 6.369v18.19a.691.691 0 00.689.69h2.606v-18.877a1.068 1.068 0 112.137 0v45.318a.691.691 0 00.689.689h2.482a.691.691 0 00.69-.689v-17.013a1.068 1.068 0 112.137 0zm-8.784-45.435a7.716 7.716 0 117.716 7.724 7.729 7.729 0 01-7.716-7.726zm2.137 0a5.579 5.579 0 105.579-5.585 5.589 5.589 0 00-5.58 5.583z" data-name="Shape 525" transform="translate(-791.999 -1043.998)" style="fill:#fff"/>
</svg>
