<?xml version="1.0" encoding="utf-8"?>
<!-- Generator: Adobe Illustrator 23.0.1, SVG Export Plug-In . SVG Version: 6.00 Build 0)  -->
<svg version="1.1" id="Layer_1" xmlns="http://www.w3.org/2000/svg" xmlns:xlink="http://www.w3.org/1999/xlink" x="0px" y="0px"
	 viewBox="0 0 256 256" style="enable-background:new 0 0 256 256;" xml:space="preserve">
<style type="text/css">
	.st0{fill:#495966;}
	.st1{fill:#068598;}
</style>
<path class="st0" d="M225,165.3h-16.1c-5.5,9.5-17.6,12.8-27.2,7.4c-3.1-1.8-5.6-4.3-7.4-7.4H82.3c-5.5,9.5-17.6,12.8-27.2,7.4
	c-3.1-1.8-5.7-4.3-7.4-7.5c-0.4-0.1-0.7-0.2-1.1-0.4l-16.7-10c-1-0.6-1.6-1.7-1.6-2.9v-30c0-0.4,0.1-0.8,0.2-1.1
	c0-0.1,0.1-0.2,0.1-0.3c0-0.1,0.1-0.2,0.1-0.3l9.1-15.1l-2.5-5c-0.8-1.6-0.2-3.7,1.5-4.5c0.3-0.1,0.6-0.3,0.9-0.3l17.1-2.9l8.1-1.4
	c39.9-6.5,80.9,0.2,116.6,19.1l9.8,5.2l15,3.3c10.2,2.2,18.8,9,23.5,18.3c0.2,0.5,0.4,1,0.4,1.5v23.3
	C228.3,163.8,226.9,165.3,225,165.3L225,165.3z M179.5,160.6c3,6.7,10.8,9.8,17.5,6.8c6.7-3,9.8-10.8,6.8-17.5
	c-3-6.7-10.8-9.8-17.5-6.8c-4.8,2.1-8,6.9-7.9,12.2C178.3,157.1,178.7,158.9,179.5,160.6L179.5,160.6z M52.8,160.6
	c3,6.7,10.8,9.8,17.5,6.8c6.7-3,9.8-10.8,6.8-17.5c-3-6.7-10.8-9.8-17.5-6.8c-4.8,2.1-8,6.9-7.9,12.2
	C51.7,157.1,52.1,158.9,52.8,160.6L52.8,160.6z M35,131.9h8.3l5-6.7H35V131.9z M102.2,95.6c-12.7-0.7-25.4,0-38,2.1L62.4,98
	l17.3,17.3H105L102.2,95.6z M78.3,121.9c-0.9,0-1.7-0.4-2.4-1L54.3,99.3l-11,1.8l1.3,2.6c0.5,1,0.5,2.2-0.1,3.2l-7,11.6H55
	c1.8,0,3.3,1.5,3.3,3.3c0,0.7-0.2,1.4-0.7,2l-10,13.3c-0.6,0.8-1.6,1.3-2.7,1.3H35V150l10,6c0-0.3,0-0.5,0-0.8c0-11,9-20,20-20
	c11,0,20,9,20,20c0,1-0.1,2-0.3,3c0,0.1,0,0.2,0,0.4h26.5l-5.2-36.7H78.3z M109,96l2.7,19.2H175C154.4,104.6,132,98.1,109,96L109,96
	z M221.7,145.2h-3.3c-1.8,0-3.3-1.5-3.3-3.3v0c0-1.8,1.5-3.3,3.3-3.3h2.8c-3.9-6.8-10.5-11.6-18.1-13.3l-15.1-3.4h-75.3l5.2,36.7
	H172c0,0,0,0,0,0c-0.2-1.1-0.3-2.2-0.3-3.3c0-11,9-20,20-20c11,0,20,9,20,20c0,1.1-0.1,2.2-0.3,3.3c0,0,0,0,0,0h10.3V145.2z
	 M221.7,145.2"/>
<path class="st1" d="M35,131.9h8.3l5-6.7H35V131.9z M29.8,118.6H55c1.8,0,3.3,1.5,3.3,3.3c0,0.7-0.2,1.4-0.7,2l-10,13.3
	c-0.6,0.8-1.6,1.3-2.7,1.3H28.3v-16.7c0-0.4,0.1-0.8,0.2-1.1c0-0.1,0.1-0.2,0.1-0.3c0-0.1,0.1-0.2,0.1-0.3L29.8,118.6z M228.3,145.2
	h-10c-1.8,0-3.3-1.5-3.3-3.3v0c0-1.8,1.5-3.3,3.3-3.3h10V145.2z M221.7,145.2"/>
<path class="st1" d="M138.3,128.6h-6.7c-1.8,0-3.3,1.5-3.3,3.3v0c0,1.8,1.5,3.3,3.3,3.3h6.7c1.8,0,3.3-1.5,3.3-3.3v0
	C141.7,130.1,140.2,128.6,138.3,128.6z"/>
</svg>
