<?xml version="1.0" encoding="iso-8859-1"?>
<!-- Generator: Adobe Illustrator 19.0.0, SVG Export Plug-In . SVG Version: 6.00 Build 0)  -->
<svg fill="white" version="1.1" id="Capa_1" xmlns="http://www.w3.org/2000/svg" xmlns:xlink="http://www.w3.org/1999/xlink" x="0px" y="0px"
	 viewBox="0 0 512 512" style="enable-background:new 0 0 512 512;" xml:space="preserve">
<g>
	<g>
		<path d="M334.097,434.463l-47.511-47.511c-7.872-7.872-20.635-7.872-28.507,0l-28.507,28.507
			c-58.375-27.651-105.38-74.656-133.031-133.031l28.507-28.507c7.872-7.872,7.872-20.635,0-28.507l-47.511-47.511
			c-7.872-7.872-20.635-7.872-28.507,0l-38.009,38.009c-31.488,31.488,6.801,120.828,85.52,199.547s168.059,117.008,199.547,85.52
			l38.009-38.009C341.969,455.098,341.969,442.335,334.097,434.463z"/>
	</g>
</g>
<g>
	<g>
		<path d="M465.757,38.758C436.598,13.765,397.974,0,357,0s-79.598,13.765-108.757,38.758C218.423,64.319,202,98.498,202,135
			s16.423,70.681,46.243,96.242c5.344,4.58,11.008,8.78,16.944,12.59c-10.961,16.515-23.775,31.695-38.187,45.198
			c31.437-2.6,61.245-10.931,88.395-23.924C328.78,268.33,342.747,270,357,270c40.974,0,79.598-13.765,108.757-38.758
			C495.577,205.681,512,171.502,512,135S495.577,64.319,465.757,38.758z M287,155c-11.046,0-20-8.954-20-20s8.954-20,20-20
			c11.046,0,20,8.954,20,20S298.046,155,287,155z M357,155c-11.046,0-20-8.954-20-20s8.954-20,20-20c11.046,0,20,8.954,20,20
			S368.046,155,357,155z M427,155c-11.046,0-20-8.954-20-20s8.954-20,20-20c11.046,0,20,8.954,20,20S438.046,155,427,155z"/>
	</g>
</g>
<g>
</g>
<g>
</g>
<g>
</g>
<g>
</g>
<g>
</g>
<g>
</g>
<g>
</g>
<g>
</g>
<g>
</g>
<g>
</g>
<g>
</g>
<g>
</g>
<g>
</g>
<g>
</g>
<g>
</g>
</svg>
