<?xml version="1.0" encoding="utf-8"?>
<!-- Generator: Adobe Illustrator 23.0.1, SVG Export Plug-In . SVG Version: 6.00 Build 0)  -->
<svg version="1.1" id="Capa_1" xmlns="http://www.w3.org/2000/svg" xmlns:xlink="http://www.w3.org/1999/xlink" x="0px" y="0px"
	 viewBox="0 0 76.4 60" style="enable-background:new 0 0 76.4 60;" xml:space="preserve">
<style type="text/css">
	.st0{fill:#495966;}
	.st1{fill:#FDB515;}
</style>
<g>
	<path class="st0" d="M36.5,21.2h-25c-1,0-1.8,0.8-1.8,1.8s0.8,1.8,1.8,1.8h25c1,0,1.8-0.8,1.8-1.8S37.5,21.2,36.5,21.2z"/>
	<path class="st1" d="M11.5,16.8h10c1,0,1.8-0.8,1.8-1.8s-0.8-1.8-1.8-1.8h-10c-1,0-1.8,0.8-1.8,1.8S10.5,16.8,11.5,16.8z"/>
	<path class="st0" d="M38.2,31c0-1-0.8-1.8-1.8-1.8h-25c-1,0-1.8,0.8-1.8,1.8s0.8,1.8,1.8,1.8h25C37.5,32.8,38.2,32,38.2,31z"/>
	<path class="st0" d="M30.2,39c0-1-0.8-1.8-1.8-1.8h-17c-1,0-1.8,0.8-1.8,1.8s0.8,1.8,1.8,1.8h17C29.5,40.8,30.2,40,30.2,39z"/>
	<path class="st0" d="M11.5,45.2c-1,0-1.8,0.8-1.8,1.8s0.8,1.8,1.8,1.8h14c1,0,1.8-0.8,1.8-1.8s-0.8-1.8-1.8-1.8H11.5z"/>
	<path class="st0" d="M33.2-0.8H-0.3v61.5h36.8c1,0,1.8-0.8,1.8-1.8s-0.8-1.8-1.8-1.8H3.2V2.8h27.5v14h14V30c0,1,0.8,1.8,1.8,1.8
		s1.8-0.8,1.8-1.8V14.3L33.2-0.8z M42.3,13.2h-8v-8L42.3,13.2z"/>
</g>
<g>
	<path class="st0" d="M36.5-56.9h-25c-1,0-1.8,0.8-1.8,1.8s0.8,1.8,1.8,1.8h25c1,0,1.8-0.8,1.8-1.8S37.5-56.9,36.5-56.9z"/>
	<path class="st1" d="M11.5-61.4h10c1,0,1.8-0.8,1.8-1.8s-0.8-1.8-1.8-1.8h-10c-1,0-1.8,0.8-1.8,1.8S10.5-61.4,11.5-61.4z"/>
	<path class="st0" d="M38.2-47.1c0-1-0.8-1.8-1.8-1.8h-25c-1,0-1.8,0.8-1.8,1.8s0.8,1.8,1.8,1.8h25C37.5-45.4,38.2-46.2,38.2-47.1z"
		/>
	<path class="st0" d="M30.2-39.1c0-1-0.8-1.8-1.8-1.8h-17c-1,0-1.8,0.8-1.8,1.8s0.8,1.8,1.8,1.8h17C29.5-37.4,30.2-38.2,30.2-39.1z"
		/>
	<path class="st0" d="M11.5-32.9c-1,0-1.8,0.8-1.8,1.8c0,1,0.8,1.8,1.8,1.8h14c1,0,1.8-0.8,1.8-1.8c0-1-0.8-1.8-1.8-1.8H11.5z"/>
	<path class="st0" d="M33.2-78.9H-0.3v61.5h36.8c1,0,1.8-0.8,1.8-1.8s-0.8-1.8-1.8-1.8H3.2v-54.5h27.5v14h14v13.2
		c0,1,0.8,1.8,1.8,1.8s1.8-0.8,1.8-1.8v-15.7L33.2-78.9z M42.3-64.9h-8v-8L42.3-64.9z"/>
</g>
<g>
	<path class="st1" d="M41.9-40c0.8,0,1.4,0.1,1.7,0.4c0.4,0.3,0.6,0.6,0.6,1.2c0,0.5-0.2,0.9-0.6,1.1s-1,0.4-1.7,0.4h-2.7v2.6h2.3
		c0.8,0,1.4,0.1,1.7,0.4c0.4,0.2,0.6,0.6,0.6,1.1c0,0.5-0.2,0.9-0.6,1.1c-0.4,0.2-1,0.4-1.7,0.4h-2.3v3.6c0,0.8-0.1,1.4-0.4,1.7
		s-0.7,0.6-1.2,0.6c-0.6,0-1-0.2-1.2-0.6s-0.4-1-0.4-1.7v-9.9c0-0.9,0.2-1.5,0.5-1.8c0.3-0.3,0.9-0.5,1.8-0.5H41.9z"/>
	<path class="st1" d="M49.1-31.4v3.5c0,0.8-0.1,1.4-0.4,1.7s-0.7,0.6-1.2,0.6s-1-0.2-1.2-0.6c-0.3-0.4-0.4-1-0.4-1.7v-9.9
		c0-0.9,0.2-1.5,0.5-1.8c0.3-0.3,0.9-0.5,1.8-0.5h2.5c1.7,0,3,0.4,4,1.2c1,0.8,1.5,1.9,1.5,3.3c0,1-0.3,1.9-0.9,2.6
		c-0.6,0.7-1.4,1.1-2.5,1.3l2.6,2.9c0.3,0.4,0.6,0.7,0.7,1s0.2,0.6,0.2,0.9c0,0.4-0.1,0.8-0.4,1.1s-0.7,0.4-1.1,0.4
		c-0.3,0-0.6-0.1-0.8-0.3c-0.3-0.2-0.6-0.5-0.9-0.9L49.1-31.4z M49.1-33.5h1.5c0.7,0,1.2-0.2,1.5-0.5c0.4-0.3,0.5-0.7,0.5-1.3
		c0-0.5-0.2-1-0.5-1.3c-0.4-0.3-0.9-0.4-1.5-0.4h-1.5V-33.5z"/>
	<path class="st1" d="M63.8-40c0.8,0,1.4,0.1,1.7,0.4c0.4,0.3,0.6,0.6,0.6,1.2c0,0.5-0.2,0.9-0.6,1.1c-0.4,0.2-1,0.4-1.7,0.4h-2.7
		v2.6h2.3c0.8,0,1.4,0.1,1.7,0.4s0.6,0.6,0.6,1.1c0,0.5-0.2,0.9-0.6,1.1c-0.4,0.2-1,0.4-1.7,0.4h-2.3v2.7h2.8c0.8,0,1.4,0.1,1.8,0.4
		c0.4,0.2,0.6,0.6,0.6,1.1c0,0.5-0.2,0.9-0.6,1.1c-0.4,0.2-1,0.4-1.8,0.4h-3.8c-0.8,0-1.4-0.1-1.7-0.4c-0.3-0.3-0.5-0.8-0.5-1.6v-10
		c0-0.9,0.2-1.5,0.5-1.8c0.3-0.3,0.9-0.5,1.8-0.5H63.8z"/>
	<path class="st1" d="M73.9-40c0.8,0,1.4,0.1,1.7,0.4c0.4,0.3,0.6,0.6,0.6,1.2c0,0.5-0.2,0.9-0.6,1.1c-0.4,0.2-1,0.4-1.7,0.4h-2.7
		v2.6h2.3c0.8,0,1.4,0.1,1.7,0.4s0.6,0.6,0.6,1.1c0,0.5-0.2,0.9-0.6,1.1c-0.4,0.2-1,0.4-1.7,0.4h-2.3v2.7H74c0.8,0,1.4,0.1,1.8,0.4
		c0.4,0.2,0.6,0.6,0.6,1.1c0,0.5-0.2,0.9-0.6,1.1c-0.4,0.2-1,0.4-1.8,0.4h-3.8c-0.8,0-1.4-0.1-1.7-0.4C68.2-26.4,68-27,68-27.8v-10
		c0-0.9,0.2-1.5,0.5-1.8c0.3-0.3,0.9-0.5,1.8-0.5H73.9z"/>
</g>
<g>
	<path class="st1" d="M74.6,34H40c-0.8,0-1.5,0.7-1.5,1.5v19c0,0.8,0.7,1.5,1.5,1.5h34.6c0.8,0,1.5-0.7,1.5-1.5v-19
		C76.1,34.7,75.4,34,74.6,34z M43.7,53h-2.2v-2.2C42.5,51.2,43.3,52,43.7,53z M73,37.1v2.2c-1-0.4-1.8-1.2-2.2-2.2H73z M41.5,42.5
		c2.7-0.6,4.8-2.7,5.4-5.4h20.7c0.6,2.7,2.7,4.8,5.4,5.4v5.1c-2.7,0.6-4.8,2.7-5.4,5.4H46.9c-0.6-2.7-2.7-4.8-5.4-5.4V42.5z
		 M41.5,39.3v-2.2h2.2C43.3,38.1,42.5,38.9,41.5,39.3z M73,50.8V53h-2.2C71.3,52,72,51.2,73,50.8z"/>
	<path class="st1" d="M47.3,49.2c0.4,0,0.8,0.4,0.8,0.8c0,0.8,0.7,1.5,1.5,1.5H65c0.8,0,1.5-0.7,1.5-1.5c0-0.4,0.4-0.8,0.8-0.8
		c0.8,0,1.5-0.7,1.5-1.5v-5.3c0-0.8-0.7-1.5-1.5-1.5c-0.4,0-0.8-0.4-0.8-0.8c0-0.8-0.7-1.5-1.5-1.5H49.6c-0.8,0-1.5,0.7-1.5,1.5
		c0,0.4-0.4,0.8-0.8,0.8c-0.8,0-1.5,0.7-1.5,1.5v5.3C45.9,48.5,46.5,49.2,47.3,49.2z M50.7,41.6h13.1c0.4,0.9,1.1,1.6,2,2v3
		c-0.9,0.4-1.6,1.1-2,2H50.7c-0.4-0.9-1.1-1.6-2-2v-3C49.6,43.2,50.3,42.5,50.7,41.6z"/>
</g>
</svg>
