<?xml version="1.0" encoding="utf-8"?>
<!-- Generator: Adobe Illustrator 23.0.1, SVG Export Plug-In . SVG Version: 6.00 Build 0)  -->
<svg version="1.1" id="Layer_1" xmlns="http://www.w3.org/2000/svg" xmlns:xlink="http://www.w3.org/1999/xlink" x="0px" y="0px"
	 viewBox="0 0 256 256" style="enable-background:new 0 0 256 256;" xml:space="preserve">
<style type="text/css">
	.st0{fill:#FFFFFF;}
</style>
<g id="surface1">
	<path class="st0" d="M119.3,104l-4.6-3c0,0,0,0,0,0L97.2,89.4c-6-4-10.6-10.4-13.2-18.5c-1.3-4.1-4.4-7.3-8.5-8.9
		c-4.8-1.8-10.4-0.7-14.2,2.8c-3.1,2.9-4.7,6.9-4.4,11.1c0,0.1,0,0.2-0.2,0.3c-4,1.4-7,4.4-8.4,8.5c-1.7,4.9-0.6,10.4,3,14.1
		c3,3.2,7.2,4.7,11.5,4.3c8.5-0.8,16.1,0.8,22.2,4.8l38.6,25.4c1,0.7,2.3,0.6,3.2-0.2c0.1-0.1,0.1-0.1,0.2-0.2
		c0.9-0.9,1-2.3,0.2-3.4l-12.7-17.4l5-3.9c0.7-0.5,1-1.3,1-2.2C120.4,105.2,120,104.5,119.3,104z M109.2,109.6
		c-1.1,0.9-1.3,2.5-0.5,3.6l5.6,7.7l-26.4-17.4c-7-4.6-15.9-6.6-25.6-5.6c-2.7,0.3-5.3-0.7-7.2-2.7c-2.2-2.2-2.9-5.7-1.8-8.7
		c0.9-2.5,2.8-4.4,5.2-5.3c2.4-0.8,3.8-3.1,3.7-5.6C62,73,63,70.6,65,68.8c2.3-2.1,5.8-2.8,8.7-1.7c2.6,1,4.5,3,5.3,5.5
		c3,9.3,8.2,16.6,15.3,21.3l17.5,11.5c0,0,0,0,0,0l1.5,1L109.2,109.6z"/>
	<path class="st0" d="M196.3,156.6c-8.4-1.6-15.3-5.3-20-10.7l-42.9-50.1c-0.8-1-2.2-1.2-3.3-0.6c-1.1,0.6-1.6,2-1.1,3.2l7.4,20.2
		l-5.9,2.4c-0.8,0.3-1.4,1-1.6,1.8c-0.2,0.8,0,1.7,0.6,2.3l27.5,32.1l1.2,1.4l1.3,1.5c4.7,5.5,7.3,12.9,7.5,21.4
		c0.1,4.3,2.2,8.2,5.7,10.9c4.1,3.1,9.8,3.6,14.4,1.2c3.8-1.9,6.4-5.3,7.3-9.4c0-0.1,0.1-0.2,0.2-0.2c3.1-0.2,5.8-1.3,8.1-3.2
		c0.9-0.7,1.6-1.6,2.3-2.5c3-4.2,3.4-9.8,1-14.4C204.1,160,200.5,157.4,196.3,156.6z M201.4,166.3c1.5,2.8,1.2,6.3-0.6,8.9
		c-1.6,2.2-3.9,3.5-6.5,3.6c-2.5,0.2-4.5,1.9-5.1,4.3c-0.6,2.6-2.2,4.6-4.6,5.8c-2.8,1.4-6.3,1.1-8.8-0.7c-2.2-1.6-3.5-4.1-3.6-6.8
		c-0.3-9.7-3.3-18.3-8.8-24.7l-1.3-1.5l-1.2-1.4l-25.1-29.3l4.9-2c1.3-0.5,2-2,1.5-3.3l-3.3-9l33.4,39c5.5,6.4,13.4,10.7,23,12.5
		C197.9,162.2,200.2,163.9,201.4,166.3z"/>
	<path class="st0" d="M117,92.8c1,0.4,2,0.2,2.7-0.4c0.3-0.3,0.5-0.6,0.7-1c0.6-1.3-0.1-2.9-1.4-3.5l-5.8-2.5
		c-1.3-0.6-2.9,0.1-3.5,1.4c-0.6,1.3,0.1,2.9,1.4,3.5L117,92.8z"/>
	<path class="st0" d="M130.1,87.2c0.5-0.4,0.9-1.1,0.9-1.8l0.3-4c0.1-1.5-1-2.7-2.4-2.8c-1.5-0.1-2.7,1-2.8,2.4l-0.3,4
		c-0.1,1.5,1,2.7,2.4,2.8C128.9,87.9,129.6,87.6,130.1,87.2z"/>
	<path class="st0" d="M134.6,141.7c0.1-1.5-1-2.7-2.4-2.8c-1.5-0.1-2.7,1-2.8,2.4l-0.3,4c-0.1,1.5,1,2.7,2.4,2.8
		c0.7,0.1,1.4-0.2,1.9-0.6c0.5-0.4,0.9-1.1,0.9-1.8L134.6,141.7z"/>
</g>
</svg>
