<?xml version="1.0" encoding="utf-8"?>
<!-- Generator: Adobe Illustrator 23.0.1, SVG Export Plug-In . SVG Version: 6.00 Build 0)  -->
<svg version="1.1" id="Layer_1" xmlns="http://www.w3.org/2000/svg" xmlns:xlink="http://www.w3.org/1999/xlink" x="0px" y="0px"
	 viewBox="0 0 256 256" style="enable-background:new 0 0 256 256;" xml:space="preserve">
<style type="text/css">
	.st0{fill:#FFFFFF;}
</style>
<path class="st0" d="M127.1,143.5c9.6,0,17.8-3.4,24.6-10.2c6.8-6.8,10.2-15,10.2-24.6s-3.4-17.8-10.2-24.6
	c-6.8-6.8-15-10.2-24.6-10.2s-17.8,3.4-24.6,10.2c-6.8,6.8-10.2,15-10.2,24.6s3.4,17.8,10.2,24.6
	C109.2,140.1,117.5,143.5,127.1,143.5z M108.4,90.1c5.2-5.2,11.3-7.7,18.6-7.7c7.3,0,13.4,2.5,18.6,7.7c5.2,5.2,7.7,11.3,7.7,18.6
	c0,7.4-2.5,13.4-7.7,18.6c-5.2,5.2-11.3,7.7-18.6,7.7c-7.3,0-13.4-2.5-18.6-7.7c-5.2-5.2-7.7-11.3-7.7-18.6
	C100.7,101.4,103.3,95.3,108.4,90.1z"/>
<path class="st0" d="M188,185c-0.2-2.8-0.6-5.9-1.2-9.1c-0.6-3.3-1.3-6.4-2.2-9.2c-0.9-2.9-2.2-5.8-3.8-8.6
	c-1.6-2.9-3.5-5.4-5.7-7.4c-2.2-2.2-5-3.9-8.2-5.1c-3.2-1.3-6.7-1.9-10.4-1.9c-1.5,0-2.9,0.6-5.7,2.4c-1.7,1.1-3.7,2.4-5.9,3.8
	c-1.9,1.2-4.5,2.3-7.6,3.4c-3.1,1-6.2,1.5-9.3,1.5c-3.1,0-6.2-0.5-9.3-1.5c-3.2-1-5.7-2.2-7.6-3.4c-2.2-1.4-4.2-2.7-5.9-3.8
	c-2.8-1.8-4.2-2.4-5.7-2.4c-3.8,0-7.3,0.6-10.4,1.9c-3.2,1.3-5.9,3-8.2,5.1c-2.2,2.1-4.1,4.6-5.7,7.4c-1.6,2.8-2.8,5.7-3.8,8.6
	c-0.9,2.8-1.7,5.9-2.2,9.2c-0.6,3.2-1,6.3-1.2,9.1c-0.2,2.8-0.3,5.6-0.3,8.5c0,7.6,2.4,13.6,7.1,18.1c4.7,4.5,10.8,6.7,18.4,6.7
	h69.6c7.5,0,13.7-2.3,18.4-6.7c4.7-4.5,7.1-10.6,7.1-18.2C188.3,190.7,188.2,187.8,188,185z M175.3,205.6c-3.1,2.9-7.2,4.4-12.5,4.4
	H93.2c-5.4,0-9.5-1.4-12.5-4.4c-3-2.9-4.5-6.8-4.5-12c0-2.7,0.1-5.4,0.3-8c0.2-2.5,0.5-5.3,1.1-8.2c0.5-2.9,1.2-5.6,2-8.1
	c0.8-2.4,1.8-4.7,3.1-7c1.2-2.2,2.6-4,4.2-5.5c1.5-1.4,3.3-2.5,5.4-3.4c2-0.8,4.2-1.2,6.7-1.3c0.3,0.2,0.8,0.5,1.7,1
	c1.7,1.1,3.8,2.4,6,3.9c2.5,1.6,5.7,3,9.6,4.3c3.9,1.3,8,1.9,11.9,1.9c4,0,8-0.6,11.9-1.9c3.9-1.2,7.1-2.7,9.6-4.3
	c2.3-1.5,4.2-2.7,6-3.8c0.9-0.6,1.4-0.9,1.7-1c2.4,0.1,4.7,0.5,6.7,1.3c2.2,0.9,4,2,5.4,3.4c1.6,1.5,3,3.3,4.2,5.5
	c1.3,2.3,2.3,4.6,3.1,7c0.8,2.5,1.5,5.2,2,8.1c0.5,2.9,0.9,5.7,1.1,8.2l0,0c0.2,2.6,0.3,5.2,0.3,8
	C179.8,198.8,178.3,202.7,175.3,205.6z"/>
<g>
	<path class="st0" d="M127.4,70c-9.6,0-18.6-0.8-25.4-2.2c-6.2-1.3-13.2-3.4-13.2-8.8s7.1-7.5,13.2-8.8c6.8-1.4,15.8-2.2,25.4-2.2
		s18.6,0.8,25.4,2.2c6.2,1.3,13.2,3.4,13.2,8.8s-7.1,7.5-13.2,8.8C146,69.2,136.9,70,127.4,70z M98.3,59c4.3,1.6,14.2,3.5,29.1,3.5
		s24.8-1.9,29.1-3.5c-4.3-1.6-14.2-3.5-29.1-3.5S102.6,57.5,98.3,59z"/>
</g>
</svg>
