<?xml version="1.0" encoding="utf-8"?>
<!-- Generator: Adobe Illustrator 23.0.1, SVG Export Plug-In . SVG Version: 6.00 Build 0)  -->
<svg version="1.1" id="Layer_1" xmlns="http://www.w3.org/2000/svg" xmlns:xlink="http://www.w3.org/1999/xlink" x="0px" y="0px"
	 viewBox="0 0 256 256" style="enable-background:new 0 0 256 256;" xml:space="preserve">
<style type="text/css">
	.st0{fill:#FFFFFF;}
</style>
<path class="st0" d="M216.7,70c-0.3-0.6-0.8-1.1-1.5-1.4l-54.8-19.3c-1.4-0.5-2.9,0.2-3.4,1.6l-12.4,35.2h-5.4v-9
	c0-2.5-1.1-4.8-3.1-6.3c-1.9-1.5-4.5-2-6.9-1.4L65.8,86.2v0c-1.1,0.3-2,1.3-2,2.5v110.9c0,4.4,3.5,7.9,7.9,7.9h73.9
	c4.4,0,7.9-3.5,7.9-7.9v-24l21.2,7.5c1.4,0.5,2.9-0.2,3.4-1.6L216.9,72C217.1,71.3,217,70.6,216.7,70L216.7,70z M130.6,74.6
	c0.8-0.2,1.6,0,2.3,0.5c0.6,0.5,1,1.3,1,2.1v9H86.9L130.6,74.6z M148.4,199.6c0,1.5-1.2,2.6-2.6,2.6H71.8c-1.5,0-2.6-1.2-2.6-2.6
	V91.4h76.6c1.5,0,2.6,1.2,2.6,2.6V199.6z M170.1,101.4l3.4-1.6l1.6,3.4l-12.8,36.3c-0.2,0.7-0.2,1.4,0.1,2l2.7,5.7l-0.8,2.4
	l-5.2-5.4c-0.6-0.6-1.4-0.9-2.2-0.8l-3.1,0.4v-3.5l2.3-1.1c0.6-0.3,1.1-0.8,1.4-1.5l5.3-14.9L170.1,101.4z M175,119.1l5.4,8.6
	l-0.9,2.6l-6.4-5.6L175,119.1z M153.6,132.1v-7.3l2.6-0.1L153.6,132.1z M158.1,119.4l-4.5,0.2V116l6.5-2.3L158.1,119.4z
	 M174.1,177.3l-20.4-7.2v-20.9l2.5-0.3l7.3,7.5c0.5,0.5,1.2,0.8,1.9,0.8c0.2,0,0.4,0,0.6-0.1c0.9-0.2,1.6-0.8,1.9-1.7l2.6-7.5
	c0.2-0.7,0.2-1.4-0.1-2l-2.8-5.7l3.6-10.2l7.8,6.8c0.5,0.4,1.1,0.7,1.7,0.7c0.2,0,0.4,0,0.7-0.1c0.8-0.2,1.5-0.8,1.8-1.7l2.6-7.5
	c0.3-0.8,0.2-1.6-0.2-2.3l-8.3-13.3l3.1-8.8c0.2-0.7,0.2-1.4-0.1-2l-3.2-6.7c-0.6-1.3-2.2-1.9-3.5-1.2l-6.7,3.2
	c-0.6,0.3-1.1,0.8-1.3,1.5l-3.1,8.8l-8.7,3V94c0-2.7-1.4-5.3-3.8-6.7l4.3-12.2l1-2.7l6.1-17.2L211,72.7L174.1,177.3z M174.1,177.3
	 M195.7,87.2l0.2-0.5c0.4-1.2,1.8-1.9,3.1-1.5l0,0c1.2,0.4,1.9,1.8,1.5,3.1l-0.2,0.5c-0.4,1.2-1.8,1.9-3.1,1.5l0,0
	C195.9,89.8,195.3,88.4,195.7,87.2z M194.9,89.5 M160.1,74.4l0.2-0.5c0.4-1.2,1.8-1.9,3.1-1.5l0,0c1.2,0.4,1.9,1.8,1.5,3.1l-0.2,0.5
	c-0.4,1.2-1.8,1.9-3.1,1.5l0,0C160.3,77,159.6,75.7,160.1,74.4z M159.3,76.7 M187.2,84l0.2-0.5c0.4-1.2,1.8-1.9,3.1-1.5l0,0
	c1.2,0.4,1.9,1.8,1.5,3.1l-0.2,0.5c-0.4,1.2-1.8,1.9-3.1,1.5l0,0C187.5,86.6,186.8,85.2,187.2,84z M186.4,86.3 M169.1,77.6l0.2-0.5
	c0.4-1.2,1.8-1.9,3.1-1.5l0,0c1.2,0.4,1.9,1.8,1.5,3.1l-0.2,0.5c-0.4,1.2-1.8,1.9-3.1,1.5l0,0C169.3,80.2,168.7,78.9,169.1,77.6z
	 M168.3,79.9 M178.2,80.8l0.2-0.5c0.4-1.2,1.8-1.9,3.1-1.5l0,0c1.2,0.4,1.9,1.8,1.5,3.1l-0.2,0.5c-0.4,1.2-1.8,1.9-3.1,1.5l0,0
	C178.4,83.4,177.7,82,178.2,80.8z M177.4,83.1 M107.5,102c-14.6,0-26.4,11.8-26.4,26.4s11.8,26.4,26.4,26.4
	c14.6,0,26.4-11.8,26.4-26.4C133.9,113.8,122.1,102,107.5,102L107.5,102z M126.6,119.3l-3.6-0.8c-1.6-0.3-3.2-0.6-4.8-0.9
	c-0.2-1.6-0.5-3.2-0.9-4.8l-0.8-3.6C121,111.4,124.5,114.9,126.6,119.3L126.6,119.3z M86.4,128.4c0-1.1,0.1-2.2,0.3-3.2l6.5-1.5
	c1-0.2,2-0.4,3-0.6c-0.3,3.5-0.3,7,0,10.5c-1-0.2-2-0.4-3-0.6l-6.5-1.5C86.5,130.5,86.4,129.4,86.4,128.4L86.4,128.4z M101.6,122.4
	c4-0.4,7.9-0.4,11.9,0c0.4,4,0.4,7.9,0,11.9c-4,0.4-7.9,0.4-11.9,0C101.2,130.3,101.2,126.4,101.6,122.4L101.6,122.4z M118.8,123.1
	c1,0.2,2,0.4,3,0.6l6.5,1.5c0.4,2.1,0.4,4.3,0,6.4l-6.5,1.5c-1,0.2-2,0.4-3,0.6C119.1,130.1,119.1,126.6,118.8,123.1L118.8,123.1z
	 M110.8,107.5l1.5,6.5c0.2,1,0.4,2,0.6,3c-3.5-0.3-7-0.3-10.5,0c0.2-1,0.4-2,0.6-3l1.5-6.5C106.5,107.1,108.6,107.1,110.8,107.5
	L110.8,107.5z M98.5,109.3l-0.8,3.6c-0.3,1.6-0.6,3.2-0.9,4.8c-1.6,0.2-3.2,0.5-4.8,0.9l-3.6,0.8C90.6,114.9,94.1,111.4,98.5,109.3
	L98.5,109.3z M88.5,137.4l3.6,0.8c1.6,0.3,3.2,0.6,4.8,0.9c0.2,1.6,0.5,3.2,0.9,4.8l0.8,3.6C94.1,145.3,90.6,141.8,88.5,137.4
	L88.5,137.4z M104.3,149.2l-1.5-6.5c-0.2-1-0.4-2-0.6-3c1.7,0.1,3.5,0.2,5.3,0.2c1.8,0,3.5-0.1,5.3-0.2c-0.2,1-0.4,2-0.6,3l-1.5,6.5
	C108.6,149.6,106.5,149.6,104.3,149.2L104.3,149.2z M116.6,147.4l0.8-3.6c0.4-1.6,0.6-3.2,0.9-4.8c1.6-0.2,3.2-0.5,4.8-0.9l3.6-0.8
	C124.5,141.8,121,145.3,116.6,147.4L116.6,147.4z M116.6,147.4 M89.4,175.9h37.4c1.3,0,2.4,1.1,2.4,2.4v0.5c0,1.3-1.1,2.4-2.4,2.4
	H89.4c-1.3,0-2.4-1.1-2.4-2.4v-0.5C87,176.9,88.1,175.9,89.4,175.9z M94.7,186.4h26.9c1.3,0,2.4,1.1,2.4,2.4v0.5
	c0,1.3-1.1,2.4-2.4,2.4H94.7c-1.3,0-2.4-1.1-2.4-2.4v-0.5C92.3,187.5,93.4,186.4,94.7,186.4z M107.9,165.3h0.5
	c1.3,0,2.4,1.1,2.4,2.4v0.5c0,1.3-1.1,2.4-2.4,2.4h-0.5c-1.3,0-2.4-1.1-2.4-2.4v-0.5C105.5,166.4,106.6,165.3,107.9,165.3z
	 M97.3,165.3h0.5c1.3,0,2.4,1.1,2.4,2.4v0.5c0,1.3-1.1,2.4-2.4,2.4h-0.5c-1.3,0-2.4-1.1-2.4-2.4v-0.5
	C94.9,166.4,96,165.3,97.3,165.3z M118.4,165.3h0.5c1.3,0,2.4,1.1,2.4,2.4v0.5c0,1.3-1.1,2.4-2.4,2.4h-0.5c-1.3,0-2.4-1.1-2.4-2.4
	v-0.5C116,166.4,117.1,165.3,118.4,165.3z"/>
</svg>
