<svg xmlns="http://www.w3.org/2000/svg" fill="#00ae81" width="28.004" height="27.026" viewBox="0 0 28.004 27.026">
  <path id="icon_calendar" data-name="icon calendar" class="cls-1" d="M14.64,22.025a6.438,6.438,0,0,1-.2-1.6c0-.179.01-.356.024-.531a6.692,6.692,0,0,1,6.321-6.051c.145-.009.29-.015.437-.015a7.04,7.04,0,0,1,1.532.17,6.581,6.581,0,0,1-1.532,13.024A6.751,6.751,0,0,1,14.64,22.025Zm2.1-1.6a4.487,4.487,0,1,0,4.485-4.362A4.425,4.425,0,0,0,16.737,20.429Zm3.829-.639h4.156a4.1,4.1,0,0,1-4.156,4.044ZM1.75,22.025A1.726,1.726,0,0,1,0,20.322V4.149a1.725,1.725,0,0,1,1.75-1.7H3.172V4.255a1.837,1.837,0,0,0,1.86,1.809h.656A1.837,1.837,0,0,0,7.547,4.255V2.447h7.658V4.255a1.837,1.837,0,0,0,1.859,1.809h.656a1.837,1.837,0,0,0,1.86-1.809V2.447H21a1.726,1.726,0,0,1,1.751,1.7v8.333a8.581,8.581,0,0,0-1.532-.14c-.147,0-.292,0-.437.012V8.406H1.968V18.621A1.3,1.3,0,0,0,3.281,19.9h9.646c-.012.175-.02.352-.02.531a7.848,7.848,0,0,0,.164,1.6Zm7.886-5.319A1.741,1.741,0,1,1,11.376,18.4,1.716,1.716,0,0,1,9.635,16.706Zm-5.209,0A1.74,1.74,0,1,1,6.166,18.4,1.715,1.715,0,0,1,4.426,16.706ZM14.845,11.6a1.741,1.741,0,1,1,1.741,1.69A1.716,1.716,0,0,1,14.845,11.6Zm-5.21,0a1.741,1.741,0,1,1,1.741,1.69A1.716,1.716,0,0,1,9.635,11.6Zm-5.209,0a1.74,1.74,0,1,1,1.74,1.69A1.715,1.715,0,0,1,4.426,11.6ZM17.065,5a.755.755,0,0,1-.765-.744V.744A.756.756,0,0,1,17.065,0h.656a.757.757,0,0,1,.767.744V4.255A.756.756,0,0,1,17.721,5ZM5.032,5a.756.756,0,0,1-.766-.744V.744A.756.756,0,0,1,5.032,0h.656a.756.756,0,0,1,.766.744V4.255A.756.756,0,0,1,5.688,5Z"/>
</svg>
