<svg xmlns="http://www.w3.org/2000/svg" width="37.526" height="44.988" viewBox="0 0 37.526 44.988">
  <defs>
    <style>
      .cls-1 {
        fill: #00ae81;
      }
    </style>
  </defs>
  <path id="id" class="cls-1" d="M7.933,44.988A7.986,7.986,0,0,1,2.218,42.9,7.473,7.473,0,0,1,0,37.252c0-.9.03-1.8.089-2.658a26.781,26.781,0,0,1,.365-2.843,22.348,22.348,0,0,1,.7-2.858,14.14,14.14,0,0,1,1.174-2.667A10.073,10.073,0,0,1,4.1,23.919a7.81,7.81,0,0,1,2.545-1.6,8.778,8.778,0,0,1,3.248-.588,3.3,3.3,0,0,1,1.76.746c.535.349,1.153.748,1.835,1.184a10.513,10.513,0,0,0,2.372,1.045,9.2,9.2,0,0,0,5.8,0,10.523,10.523,0,0,0,2.374-1.046c.688-.44,1.306-.838,1.834-1.182a3.288,3.288,0,0,1,1.76-.747,8.784,8.784,0,0,1,3.248.588,7.8,7.8,0,0,1,2.545,1.6A10.083,10.083,0,0,1,35.2,26.227a14.181,14.181,0,0,1,1.174,2.666,22.4,22.4,0,0,1,.7,2.858,26.842,26.842,0,0,1,.365,2.842c.059.857.09,1.751.091,2.657A7.47,7.47,0,0,1,35.308,42.9a7.982,7.982,0,0,1-5.716,2.085ZM10.82,18.5a10.483,10.483,0,0,1-3.174-7.662,10.485,10.485,0,0,1,3.173-7.661A10.485,10.485,0,0,1,18.48,0a10.483,10.483,0,0,1,7.659,3.174,10.484,10.484,0,0,1,3.174,7.661A10.485,10.485,0,0,1,26.14,18.5a10.482,10.482,0,0,1-7.66,3.174A10.482,10.482,0,0,1,10.82,18.5Z"/>
</svg>
