<svg xmlns="http://www.w3.org/2000/svg" width="43.125" height="45" viewBox="0 0 43.125 45">
  <defs>
    <style>
      .cls-1 {
        fill: #00ae81;
      }
    </style>
  </defs>
  <path id="Shape_783" data-name="Shape 783" class="cls-1" d="M806.013,1737.4c-.047.052-.136.155-.136.155s-1.363,2.33-2.773,4.267a4.668,4.668,0,0,1-3.325,2,5.2,5.2,0,0,1-3.465-2.189c-1.689-2.332-4.245-5.867-4.637-6.324l-.056.021a3.321,3.321,0,0,0-2.028,4.219c.49,1.153,3.923.935,3.629,3.416-.245,2.032,2.4,2.566,3.335,2.467s2.378,1.547,1.65,2.278-2.084.759-1.874,2.643c.056.549,1.706.479,1.706,1.308s-.853,1.786-.2,2.749a2.225,2.225,0,0,0,.441.5,17.752,17.752,0,0,1-27.685-21.359,10.44,10.44,0,0,0,2.489,6.657c2.6,2.608,6.371,1.786,6.853,3.972s-2.587,2.188-2.384,3.853,4.217,2.116,3.322,3.655c-1.182,2.046.8,2.194.224,4.718-.308,1.378,1.671,1.645,2.406.6.559-.8.448-1.786,1.574-2.987,1.377-1.477,4.573-1.716,4.216-4.155-.608-4.05-4.525-4.682-6.231-5.631-1.937-1.069-1.462-3.635-1.881-4.858-.587-1.737-2.58.484-3.643-.527-1.748-1.66.315-4.008,1.783-3.958,3.1.1,4.049,3.129,5.189,3.023,1.112-.1,1.832-1.659,2.028-2.489.413-1.807-.7-1-1.147-1.94-.6-1.259,2.112-2.461,3.161-3.389a1.421,1.421,0,0,0,.342-.4c.315-.618-.1-1.09-.8-1.518-1.4-.851-3.951-1.526-4.07-2.855-.07-.815,1.482-1.209,3.251-1.28.294.014.58.042.874.071a11.965,11.965,0,0,1,.707-2.447,19.509,19.509,0,0,0-2.58-.169,20.325,20.325,0,1,0,20.217,20.325,20.009,20.009,0,0,0-.49-4.422Zm-6.234,4.086a1.348,1.348,0,0,0,1-.449c.861-.967,8.414-9.569,8.414-14.425a9.415,9.415,0,1,0-18.83,0c0,4.857,7.554,13.459,8.414,14.425A1.347,1.347,0,0,0,799.779,1741.49Zm-4.035-14.874a4.035,4.035,0,1,1,4.035,4.057A4.048,4.048,0,0,1,795.744,1726.616Z" transform="translate(-766.069 -1717.15)"/>
</svg>
